"0","All_Calendar_Filtered<-All_Calendar_Filtered[order(All_Calendar_Filtered$`Date Received` , decreasing = FALSE),]"
"0",""
"0","All_Calendar_Filtered <- All_Calendar_Filtered %>%          "
"0","  group_by(`Inspection Status`) %>%"
"0","  mutate('Status Position' = row_number(),"
"0","         'Status Order' = max(`Status Position`)"
"0","         )"
"0",""
"0","All_Calendar_Filtered$`Status Position` <- ifelse(All_Calendar_Filtered$`Inspection Status`== ""Queue"", All_Calendar_Filtered$`Status Position`, NA)"
"0",""
"0","All_Calendar_Filtered$`Status Order` <- ifelse(All_Calendar_Filtered$`Inspection Status`== ""Queue"", All_Calendar_Filtered$`Status Order`, NA)"
"0",""
"0",""
"0","All_Calendar_Filtered$`Queue Position`<- ifelse(All_Calendar_Filtered$`Inspection Status`== ""Queue"", All_Calendar_Filtered$`Status Position`, NA)"
"0",""
"0",""
