"0",""
"0","All_Calendar_Filtered$`KW DC` <- as.numeric(All_Calendar_Filtered$`KW DC`)"
"0",""
"0","All_Calendar_Filtered$`KW DC`  <-  sprintf(""%.2f"", round(All_Calendar_Filtered$`KW DC`,3))"
"0",""
"0",""
"0",""
