"0","#library(AER)"
"0","#library(lubridate)"
"0","#library(ggplot2)"
"0","#library(tibble)"
"0","#library(janitor)"
"0","#library(data.table)"
"0","#library(dplyr)"
"0","#library(stringr)"
"0","#library(MASS)"
