"0","Test <- anti_join(Installer_Key_Calendar, Installer_Key, by = ""Installer"")"
"0",""
"0","ifelse(dim(Test)[1] == 0, print(""No new Installers""), stop(""New Installer""))"
"1","[1]"
"1"," ""No new Installers"""
"1","
"
"1","[1]"
"1"," ""No new Installers"""
"1","
"
