"0","col_order_Installer <- c( ""System Name Abbrev."", ""Project Number"", ""KW DC"" , ""Installer Key"", ""Inspection Status"", ""Action Required by:"", ""Identified Issues"", ""Last Update"", ""Submission Verified"", ""Date Performed"", ""Report Sent to Installer"", ""Inspection ID"")"
"0",""
"0","Final_Installer <- All_Calendar_Filtered[, col_order_Installer]"
"0",""
"0","Final_Installer$`Installer Key`<-as.numeric(Final_Installer$`Installer Key`)"
"0","Final_Installer<-Final_Installer[order(Final_Installer$`Installer Key`, decreasing = FALSE),]"
"0","Final_Installer <- Final_Installer[order(Final_Installer$`Identified Issues`, decreasing = FALSE),]"
"0",""
"0",""
"0","Final_Installer$`Installer Key`  <- as.character(Final_Installer$`Installer Key`)"
"0",""
