"0","#First develop the estimated completion date rules per data column "
"0",""
"0","#date received by REF + 14 days"
"0","All_Calendar_Filtered$`Date Received Estimate` <- All_Calendar_Filtered$`Date Received` + 14"
"0",""
"0","#date processed by CADMUS +13 days"
"0","All_Calendar_Filtered$`Date Processed Estimate` <- All_Calendar_Filtered$`Date Processed` + 13"
"0",""
"0","#Date Queued"
"0","All_Calendar_Filtered$`Date Queued Estimate` <- All_Calendar_Filtered$`Date Queued` + 10 + .2 * All_Calendar_Filtered$`Status Position`"
"0",""
"0","#Date Performed"
"0","All_Calendar_Filtered$`Date Performed Estimate` <- All_Calendar_Filtered$`Date Performed` + 3"
"0",""
"0","#End Time"
"0","All_Calendar_Filtered$`End Time Estimate` <- All_Calendar_Filtered$`End Time` + 3"
"0",""
"0","#Date Resolved"
"0","All_Calendar_Filtered$`Date Resolved Estimate` <- All_Calendar_Filtered$`Date Resolved` + 3"
"0",""
"0","#Report Sent to Installer"
"0","All_Calendar_Filtered$`Report Sent to Installer Estimate` <- All_Calendar_Filtered$`Report Sent to Installer` + 3"
"0",""
"0","#Report Sent to REF"
"0","All_Calendar_Filtered$`Report Sent to REF Estimate` <- All_Calendar_Filtered$`Report Sent to REF` + 3"
"0",""
"0","#Corrections Follow Up 1"
"0","All_Calendar_Filtered$`Corrections Follow Up 1 Estimate` <- All_Calendar_Filtered$`Corrections Follow Up 1` + 10"
"0",""
"0","#Corrections Follow Up 2"
"0","All_Calendar_Filtered$`Corrections Follow Up 2 Estimate` <- All_Calendar_Filtered$`Corrections Follow Up 2` + 10"
"0",""
"0","#Corrections Follow Up 3"
"0","All_Calendar_Filtered$`Corrections Follow Up 3 Estimate` <- All_Calendar_Filtered$`Corrections Follow Up 3` + 10"
"0",""
"0",""
"0","#Develop estimate by taking the latest date of the above "
"0","All_Calendar_Filtered<- All_Calendar_Filtered %>% "
"0","   mutate(`Estimated Completion Date` = pmax( `Date Received Estimate`, `Date Processed Estimate`, `Date Queued Estimate`, `Date Performed Estimate`, `End Time Estimate`, `Date Resolved Estimate`, `Report Sent to Installer Estimate`, `Report Sent to REF Estimate`, `Corrections Follow Up 1 Estimate`, `Corrections Follow Up 2 Estimate`, `Corrections Follow Up 3 Estimate`,  na.rm = TRUE))"
"0",""
"0",""
