"0","All_Calendar <- All_Calendar %>% "
"0","    mutate(Installer = case_when("
"0","         Installer %in% c(""Sol Power"",""sol Power"", ""sol power"",""Sol power"", ""solpower"", ""Solpower"", ""SolPower"") ~ ""Sol Power"""
"0","         ,TRUE ~ Installer"
"0","        )"
"0","    )"
"0","All_Calendar <- All_Calendar %>% "
"0","    mutate(Installer = case_when("
"0","         Installer %in% c(""Sunergy Solutions"") ~ ""Sunergy Solutions LLC"""
"0","         ,TRUE ~ Installer"
"0","        )"
"0","    )"
"0",""
"0","All_Calendar <- All_Calendar %>% "
"0","    mutate(Installer = case_when("
"0","         Installer %in% c(""Sunwatt Solar"", ""Sun Watt Solar"") ~ ""SunWatt Solar"""
"0","         ,TRUE ~ Installer"
"0","        )"
"0","    )"
"0",""
"0","#All_Calendar <- All_Calendar %>% "
"0"," #   mutate(Installer = case_when("
"0","  #       Installer %in% c(""MegaWatt Energy Solutions"") ~ ""MegaWatt Solutions"""
"0","   #      ,TRUE ~ Installer"
"0","    #    )"
"0","    #)"
"0",""
"0","All_Calendar <- All_Calendar %>% "
"0","    mutate(Installer = case_when("
"0","         Installer %in% c(""SGE"") ~ ""Second Generation Energy"""
"0","         ,TRUE ~ Installer"
"0","        )"
"0","    )"
"0",""
"0","All_Calendar <- All_Calendar %>% "
"0","    mutate(Installer = case_when("
"0","         Installer %in% c(""InFEWsion, LLC"", ""InFEWsion"", ""Infewsion"" ) ~ ""InFEWsion"""
"0","         ,TRUE ~ Installer"
"0","        )"
"0","    )"
"0",""
"0","All_Calendar <- All_Calendar %>% "
"0","    mutate(Installer = case_when("
"0","         Installer %in% c(""SolarFlair"") ~ ""SolarFlair Energy"""
"0","         ,TRUE ~ Installer"
"0","        )"
"0","    )"
"0",""
"0","All_Calendar <- All_Calendar %>% "
"0","    mutate(Installer = case_when("
"0","         Installer %in% c(""Bright Plant Solar"") ~ ""Bright Planet Solar"""
"0","         ,TRUE ~ Installer"
"0","        )"
"0","    )"
"0",""
"0","All_Calendar <- All_Calendar %>% "
"0","    mutate(Installer = case_when("
"0","         Installer %in% c(""Resne"", ""RESNE inc"", ""RESNE Inc"") ~ ""RESNE"""
"0","         ,TRUE ~ Installer"
"0","        )"
"0","    )"
"0",""
"0","All_Calendar <- All_Calendar %>% "
"0","    mutate(Installer = case_when("
"0","         Installer %in% c(""Yet Solar"") ~ ""Yep Solar"""
"0","         ,TRUE ~ Installer"
"0","        )"
"0","    )"
"0",""
"0","All_Calendar <- All_Calendar %>% "
"0","    mutate(Installer = case_when("
"0","         Installer %in% c(""E2SOL"") ~ ""E2Sol LLC"""
"0","         ,TRUE ~ Installer"
"0","        )"
"0","    )"
"0",""
"0",""
"0",""
"0",""
"0","All_Calendar <- All_Calendar %>% "
"0","    mutate(Installer = case_when("
"0","         Installer %in% c(""US SolarWorks"", ""MegaWatt Energy Solutions"", ""MegaWatt Solutions"") ~ ""US SolarWorks LLC"""
"0","         ,TRUE ~ Installer"
"0","        )"
"0","    )"
"0",""
"0","All_Calendar <- All_Calendar %>% "
"0","    mutate(Installer = case_when("
"0","         Installer %in% c(""NEC Solar"") ~ ""Newport Electric"""
"0","         ,TRUE ~ Installer"
"0","        )"
"0","    )"
"0",""
"0","All_Calendar <- All_Calendar %>% "
"0","    mutate(Installer = case_when("
"0","         Installer %in% c(""Advance Electrical"") ~ ""Advance Electrical Corp"""
"0","         ,TRUE ~ Installer"
"0","        )"
"0","    )"
"0",""
"0","All_Calendar <- All_Calendar %>% "
"0","    mutate(Installer = case_when("
"0","         Installer %in% c(""Restivo's"") ~ ""Restivo's Heating and Air Conditioning"""
"0","         ,TRUE ~ Installer"
"0","        )"
"0","    )"
"0",""
"0","All_Calendar <- All_Calendar %>% "
"0","    mutate(Installer = case_when("
"0","         Installer %in% c(""Apex Solar"") ~ ""Apex Energy Tek"""
"0","         ,TRUE ~ Installer"
"0","        )"
"0","    )"
"0",""
"0",""
"0",""
"0",""
"0",""
