"0","col_order_REF <- c( ""System Name"" , ""Project Number"", ""KW DC"" , ""Installer"", ""Report Sent to REF"", ""Identified Issues"", ""Inspection Status"", ""Action Required by:"", ""Last Update"", ""Submission Verified"", ""Date Performed"", ""Report Sent to Installer"", ""Inspection ID"")"
"0",""
"0","Final_REF <- All_Calendar_Filtered[, col_order_REF]"
"0",""
"0","Final_REF<- Final_REF[order(Final_REF$Installer, decreasing = FALSE),]"
"0",""
